64
Lattice="13.392 0.0 0.0 0.0 8.50783356677833 0.0 0.0 0.0 4.912" Properties=species:S:1:pos:R:3
C  0  0 0
C  0  2.12695839169458 1.228
C  3.348  0 0
C  3.348  2.12695839169458 1.228
C  0  -0.709127927790973 1.228
C  0  1.41783046390361 2.456
C  3.348  0.709127927790973 1.228
C  3.348  2.83608631948555 2.456
C  6.696  0 0
C  6.696  2.12695839169458 1.228
C  10.044  0 0
C  10.044  2.12695839169458 1.228
C  6.696  -0.709127927790973 1.228
C  6.696  1.41783046390361 2.456
C  10.044  0.709127927790973 1.228
C  10.044  2.83608631948555 2.456
C  0  4.25391678338916 0
C  0  6.38087517508374 1.228
C  3.348  4.25391678338916 0
C  3.348  6.38087517508374 1.228
C  0  3.54478885559819 1.228
C  0  5.67174724729277 2.456
C  3.348  4.96304471118014 1.228
C  3.348  7.09000310287472 2.456
C  6.696  4.25391678338916 0
C  6.696  6.38087517508374 1.228
C  10.044  4.25391678338916 0
C  10.044  6.38087517508374 1.228
C  6.696  3.54478885559819 1.228
C  6.696  5.67174724729277 2.456
C  10.044  4.96304471118014 1.228
C  10.044  7.09000310287472 2.456
C  0  0 2.456
C  0  2.12695839169458 3.684
C  3.348  0 2.456
C  3.348  2.12695839169458 3.684
C  0  -0.709127927790973 3.684
C  0  1.41783046390361 4.912
C  3.348  0.709127927790973 3.684
C  3.348  2.83608631948555 4.912
C  6.696  0 2.456
C  6.696  2.12695839169458 3.684
C  10.044  0 2.456
C  10.044  2.12695839169458 3.684
C  6.696  -0.709127927790973 3.684
C  6.696  1.41783046390361 4.912
C  10.044  0.709127927790973 3.684
C  10.044  2.83608631948555 4.912
C  0  4.25391678338916 2.456
C  0  6.38087517508374 3.684
C  3.348  4.25391678338916 2.456
C  3.348  6.38087517508374 3.684
C  0  3.54478885559819 3.684
C  0  5.67174724729277 4.912
C  3.348  4.96304471118014 3.684
C  3.348  7.09000310287472 4.912
C  6.696  4.25391678338916 2.456
C  6.696  6.38087517508374 3.684
C  10.044  4.25391678338916 2.456
C  10.044  6.38087517508374 3.684
C  6.696  3.54478885559819 3.684
C  6.696  5.67174724729277 4.912
C  10.044  4.96304471118014 3.684
C  10.044  7.09000310287472 4.912